<svg id="DROP_OFF_Copy" data-name="DROP_OFF Copy" xmlns="http://www.w3.org/2000/svg" width="61.848" height="61.464" viewBox="0 0 61.848 61.464">
  <g id="SUN" transform="translate(5.85 14.208)">
    <g id="Group_19" data-name="Group 19" transform="translate(6.686 6.686)">
      <path id="Combined_Shape" data-name="Combined Shape" d="M7.522,27.656h0a14.186,14.186,0,0,1-5.434-5.291A15.248,15.248,0,0,1,0,14.625,14.987,14.987,0,0,1,4.039,4.284,13.317,13.317,0,0,1,13.791,0a13.176,13.176,0,0,1,7.464,2.326,14.428,14.428,0,0,1,5,6.032H14.522a7.008,7.008,0,0,0-7,7v12.3Z" transform="translate(0 0)" fill="#ffbb62"/>
    </g>
    <path id="Combined_Shape-2" data-name="Combined Shape" d="M14.205,36.361a16.356,16.356,0,0,1-9.772-12.15l-3.568.125H.835a.836.836,0,0,1-.126-1.662l.1-.009,3.417-.119q-.046-.614-.046-1.237a16.275,16.275,0,0,1,1.209-6.182L2.064,13.361a.836.836,0,0,1,.6-1.546l.091.03.089.041L6.1,13.614a16.507,16.507,0,0,1,5.135-5.735l-2-3.207A.836.836,0,0,1,10.523,3.63l.069.077.056.08L12.657,7a16.162,16.162,0,0,1,6.609-1.945V5.041L19.119.865A.836.836,0,0,1,19.926,0h.03a.84.84,0,0,1,.825.709l.009.1.146,4.177c0,.012,0,.024,0,.036A16.337,16.337,0,0,1,35.528,15.041H32.756A13.789,13.789,0,1,0,14.206,33.59v2.772Z" transform="translate(0.002 0.002)" fill="#fda932"/>
  </g>
  <g id="Group" transform="translate(20.895 22.147)">
    <g id="Group_10" data-name="Group 10" transform="translate(0 0)">
      <g id="Group_4" data-name="Group 4" transform="translate(0 7.731)">
        <g id="Group_2" data-name="Group 2">
          <path id="Oval_2" data-name="Oval 2" d="M27.988,0a4.179,4.179,0,0,1,4.179,4.179V25.908a4.179,4.179,0,0,1-4.179,4.179H4.179A4.179,4.179,0,0,1,0,25.908V4.179A4.179,4.179,0,0,1,4.179,0Z" transform="translate(0 0)" fill="#f5e6ff" stroke="#403a62" stroke-miterlimit="10" stroke-width="3"/>
          <g id="Group_15" data-name="Group 15" transform="translate(7.006 6.895)">
            <rect id="Rectangle" width="12.537" height="15.879" transform="translate(3.024 0)" fill="#fafafa"/>
            <path id="Stroke_7" data-name="Stroke 7" d="M.338,16.364.668.518" transform="translate(2.034 -0.1)" fill="none" stroke="#403a62" stroke-linecap="round" stroke-linejoin="round" stroke-miterlimit="10" stroke-width="2.756"/>
            <path id="Stroke_9" data-name="Stroke 9" d="M0,0H12.848a.545.545,0,0,1,.524.564V15.8" transform="translate(2.925 0.463)" fill="none" stroke="#403a62" stroke-linecap="round" stroke-linejoin="round" stroke-miterlimit="10" stroke-width="2.756"/>
            <path id="Stroke_11" data-name="Stroke 11" d="M5.015,0,3.344,1.671,1.671,3.343,0,1.671" transform="translate(7.203 7.521)" fill="none" stroke="#403a62" stroke-linecap="round" stroke-linejoin="round" stroke-miterlimit="10" stroke-width="1.929"/>
            <path id="Stroke_13" data-name="Stroke 13" d="M16.224,0h1.082a1.106,1.106,0,0,1,1.082,1.129,1.106,1.106,0,0,1-1.082,1.129H1.082A1.106,1.106,0,0,1,0,1.129,1.106,1.106,0,0,1,1.082,0H2.163" transform="translate(0 14.007)" fill="none" stroke="#403a62" stroke-linecap="round" stroke-linejoin="round" stroke-miterlimit="10" stroke-width="2.756"/>
          </g>
        </g>
      </g>
      <g id="_" data-name="#" transform="translate(26.327)">
        <g id="_2" data-name="#">
          <rect id="Rectangle-2" data-name="Rectangle" width="12.537" height="12.536" rx="1.5" fill="#ffb357" stroke="#312d4d" stroke-miterlimit="10" stroke-width="1.875"/>
          <text id="_1" data-name="1" transform="translate(4.522 8.768)" fill="#312d4d" font-size="7.5" font-family="MuseoSlab-900, 'Museo Slab 900'" font-weight="900" letter-spacing="0.031em"><tspan x="0" y="0">2</tspan></text>
        </g>
      </g>
    </g>
  </g>
</svg>
