<svg xmlns="http://www.w3.org/2000/svg" width="63" height="78" viewBox="0 0 63 78">
    <g fill="none" fill-rule="evenodd">
        <g>
            <g>
                <g>
                    <g stroke="#282333">
                        <g stroke-width="2.586">
                            <g>
                                <path fill="#FFFAF0" d="M0.571 5.172H59.436V75H0.571z" transform="translate(-253 -537) translate(254 538)"/>
                                <path d="M9.99 0L9.418 5.172M50.018 0L50.018 6.466" transform="translate(-253 -537) translate(254 538)"/>
                            </g>
                        </g>
                        <g fill="#282333" stroke-width="1.293">
                            <g>
                                <path d="M.178.306l.027 13.007c0 .167.14.302.31.302.171 0 .31-.136.31-.303L.796.305c0-.167-.14-.303-.31-.302-.171 0-.31.136-.31.303h0z" transform="translate(-253 -537) translate(254 538) translate(40.028 59.483) translate(14.128)"/>
                            </g>
                            <g>
                                <path d="M0 .23l.05 9.885c0 .127.254.23.565.23.31 0 .563-.104.562-.23L1.127.23C1.127.103.874 0 .563 0 .25 0-.001.104 0 .23h0z" transform="translate(-253 -537) translate(254 538) translate(40.028 59.483) translate(9.418 5.172)"/>
                            </g>
                            <g>
                                <path d="M0 .144l.05 6.178c0 .08.254.144.565.144.31 0 .563-.065.562-.145L1.127.144C1.127.064.874 0 .563 0 .25 0-.001.065 0 .144h0z" transform="translate(-253 -537) translate(254 538) translate(40.028 59.483) translate(4.71 9.052)"/>
                            </g>
                            <g>
                                <path d="M0 .058l.05 2.47c0 .033.254.058.565.058.31 0 .563-.026.562-.057L1.127.057C1.127.026.874 0 .563 0 .25 0-.001.026 0 .058h0z" transform="translate(-253 -537) translate(254 538) translate(40.028 59.483) translate(0 12.931)"/>
                            </g>
                        </g>
                        <g fill="#282333" stroke-width="1.293">
                            <g>
                                <path d="M.178.223l.027 9.459c0 .122.14.22.31.22.171 0 .31-.1.31-.22L.796.221c0-.122-.14-.22-.31-.22-.171 0-.31.1-.31.22h0z" transform="translate(-253 -537) translate(254 538) rotate(180 10.007 16.164) translate(14.128)"/>
                            </g>
                            <g>
                                <path d="M0 .144l.05 6.178c0 .08.254.144.565.144.31 0 .563-.065.562-.145L1.127.144C1.127.064.874 0 .563 0 .25 0-.001.065 0 .144h0z" transform="translate(-253 -537) translate(254 538) rotate(180 10.007 16.164) translate(9.418 3.88)"/>
                            </g>
                            <g>
                                <path d="M0 .087l.05 3.706c0 .048.254.086.565.086.31 0 .563-.039.562-.086L1.127.086C1.127.04.874 0 .563 0 .25 0-.001.039 0 .087h0z" transform="translate(-253 -537) translate(254 538) rotate(180 10.007 16.164) translate(4.71 6.466)"/>
                            </g>
                            <g>
                                <path d="M0 .058l.05 2.47c0 .033.254.058.565.058.31 0 .563-.026.562-.057L1.127.057C1.127.026.874 0 .563 0 .25 0-.001.026 0 .058h0z" transform="translate(-253 -537) translate(254 538) rotate(180 10.007 16.164) translate(0 7.759)"/>
                            </g>
                        </g>
                        <g stroke-linecap="square" stroke-width="1.94">
                            <path d="M13.613 0.647L0.515 0.647" transform="translate(-253 -537) translate(254 538) rotate(-90 46.094 -7.972)"/>
                        </g>
                        <path stroke-linecap="square" stroke-width="1.94" d="M5.607 62.52L5.607 73.629M5.607 55.519L5.607 50.921" transform="translate(-253 -537) translate(254 538)"/>
                    </g>
                    <path fill="#34303F" fill-rule="nonzero" d="M38.622 59.569v-2.227H33.42V33.48h-2.196l-5.373 5.864 1.487 1.633 2.534-2.746c.946-1.002 1.183-1.56 1.183-1.56h.067s-.034.706-.034 1.448v19.224h-5.304v2.227h12.84z" transform="translate(-253 -537) translate(254 538)"/>
                    <path stroke="#282333" stroke-linecap="round" stroke-linejoin="round" stroke-width="2.586" d="M0.964 21.356L60.042 21.983" transform="translate(-253 -537) translate(254 538)"/>
                </g>
                <path stroke="#282333" stroke-linecap="round" stroke-linejoin="round" stroke-width="2.586" d="M12.737 13.597L48.858 13.578" transform="translate(-253 -537) translate(254 538)"/>
            </g>
        </g>
    </g>
</svg>
