<svg xmlns="http://www.w3.org/2000/svg" width="48" height="39" viewBox="0 0 48 39">
    <g fill="#FBFBFB" fill-rule="nonzero" stroke="#FBFBFB" transform="translate(1 1.243)">
        <path d="M45.663 16.789l-3.687-2.739V1.85c0-.48-.388-.87-.868-.87H32.64c-.48 0-.87.39-.87.87v4.62L23.526.346a.868.868 0 0 0-1.036 0L.351 16.79a.869.869 0 0 0 1.036 1.395l2.65-1.968v9.257a.869.869 0 0 0 1.737 0V14.926L23.007 2.125l17.232 12.8v.441l.002.021V34.9H29.96v-7.636a6.96 6.96 0 0 0-6.953-6.953 6.96 6.96 0 0 0-6.954 6.953V34.9H4.905a.87.87 0 0 0 0 1.738H41.11a.87.87 0 0 0 .87-.869V16.217l2.647 1.967a.866.866 0 0 0 1.216-.18.869.869 0 0 0-.18-1.215zm-27.87 10.474a5.221 5.221 0 0 1 5.215-5.215 5.22 5.22 0 0 1 5.214 5.215V34.9h-10.43v-7.637zM33.508 7.76V2.72h6.73v10.04l-6.73-4.998z"/>
        <path d="M27.07 12.458a4.067 4.067 0 0 0-4.063-4.063 4.067 4.067 0 0 0-4.063 4.063 4.067 4.067 0 0 0 4.063 4.063 4.067 4.067 0 0 0 4.063-4.063zm-6.388 0a2.327 2.327 0 0 1 2.325-2.325 2.327 2.327 0 0 1 2.325 2.325 2.327 2.327 0 0 1-2.325 2.325 2.327 2.327 0 0 1-2.325-2.325z"/>
        <circle cx="26.2" cy="29.412" r="1.185"/>
    </g>
</svg>
