          <svg xmlns="http://www.w3.org/2000/svg" viewBox="0 0 51.578 51.518">
            <g id="checkMark" transform="matrix(1, 0.017, -0.017, 1, 38.345, 36.31)">
              <circle id="ovalMain" cx="25.759" cy="25.759" r="25.759" transform="translate(-38.973 -35.636) rotate(-1)" fill="#7a48ac"/>
              <circle id="Oval" cx="6.093" cy="6.093" r="6.093" transform="translate(0.325 0.305)" fill="#f7b500" stroke="#fff" stroke-miterlimit="10" stroke-width="1.434"/>
              <path id="Shape" d="M1.653,4.341a.651.651,0,0,0,.482.209.679.679,0,0,0,.482-.209L5.539,1.229a.752.752,0,0,0,0-1.018.647.647,0,0,0-.956,0L2.127,2.81l-.973-.894a.647.647,0,0,0-.956,0,.752.752,0,0,0,0,1.018Z" transform="translate(3.551 4.248)" fill="#fff"/>
            </g>
            <g id="icon_2" class="icon_group" transform="translate(13.144 14.702)">
              <path id="Path-2" data-name="Path" d="M14.7,0c3.479,0,7.533,2.488,7.533,5.967a6.868,6.868,0,0,1-3.254,5.588,18.259,18.259,0,0,1-2.189,2.322c-.261,3.238-2.984,5.022-6.29,5.022a6.3,6.3,0,0,1-6.3-6.3l.01-.356A6.3,6.3,0,1,1,10.5,1.606,6.262,6.262,0,0,1,14.7,0Z" transform="matrix(1, -0.017, 0.017, 1, 0.857, 0.702)" fill="#4d4d6e"/>
              <path id="Shape-6" data-name="Shape" d="M9.695,19.189a64.818,64.818,0,0,1-6.984-6.607C.861,10.384,0,8.419,0,6.4A6.3,6.3,0,0,1,1.892,1.848,6.609,6.609,0,0,1,6.548,0a7.16,7.16,0,0,1,5,2.074,7.163,7.163,0,0,1,5-2.074,6.6,6.6,0,0,1,4.657,1.849A6.3,6.3,0,0,1,23.1,6.4c0,2.023-.861,3.989-2.712,6.187A64.735,64.735,0,0,1,13.4,19.189L11.55,21Z" transform="matrix(1, -0.017, 0.017, 1, 0.857, 0.702)" fill="none" stroke="#fff" stroke-miterlimit="10" stroke-width="2.1"/>
            </g>
          </svg>