<svg xmlns="http://www.w3.org/2000/svg" width="9" height="17" viewBox="0 0 9 17">
  <path id="Path_3" data-name="Path 3" d="M.318,16.731a1,1,0,0,0,1.322.038l.091-.086,7-7.5a1,1,0,0,0,.082-1.264l-.082-.1-7-7.5A1,1,0,0,0,.189,1.585l.08.1L6.631,8.5.269,15.318A1,1,0,0,0,.231,16.64Z" transform="translate(9 17) rotate(180)" fill="#282333"/>
</svg>
