<svg version="1.2" baseProfile="tiny-ps" xmlns="http://www.w3.org/2000/svg" viewBox="0 0 30 30" width="30" height="30">
	<title>plus-icon-1</title>
	<style>
		tspan { white-space:pre }
		.shp0 { fill: #272736 } 
		.shp1 { fill: #f5ede2 } 
	</style>
	<path id="Rectangle Copy" class="shp0" d="M15 0L15 0C23.29 0 30 6.7 30 15L30 15C30 23.3 23.29 30 15 30L15 30C6.7 30 0 23.3 0 15L0 15C0 6.7 6.7 0 15 0Z" />
	<path id="+" class="shp1" d="M13.86 18.65C14.53 18.65 15.02 18.63 15.32 18.6C15.63 18.57 15.78 18.45 15.78 18.25L15.78 18.25L15.78 16.11L17.92 16.11C18.1 16.11 18.22 15.98 18.26 15.73L18.27 15.64C18.31 15.33 18.32 14.84 18.32 14.19L18.32 14.19L15.78 14.19L15.78 11.65C15.2 11.65 14.75 11.67 14.43 11.69L14.33 11.7C14.02 11.73 13.86 11.85 13.86 12.05L13.86 12.05L13.86 14.19L11.72 14.19C11.54 14.19 11.43 14.32 11.39 14.56L11.37 14.65C11.34 14.96 11.32 15.44 11.32 16.11L11.32 16.11L13.86 16.11L13.86 18.65Z" />
</svg>