<svg xmlns="http://www.w3.org/2000/svg" xmlns:xlink="http://www.w3.org/1999/xlink" width="144.254" height="142.684" viewBox="0 0 144.254 142.684">
  <defs>
    <clipPath id="clip-path">
      <rect id="Mask" width="140" height="140" rx="70" transform="translate(0.945)" fill="#5ed4ff"/>
    </clipPath>
    <clipPath id="clip-path-2">
      <path id="Mask-2" data-name="Mask" d="M67.5,131.653c37.279,0,65.764-15.542,67.5-66.751S123.848,2.293,86.569,2.293c-15.217,0-54.618-4.724-66.24-.61C3.479,7.648,0,43.085,0,64.9,0,101.768,30.221,131.653,67.5,131.653Z" transform="translate(0.56 7.774) rotate(-3)" fill="none"/>
    </clipPath>
    <clipPath id="clip-path-3">
      <circle id="Mask-3" data-name="Mask" cx="5.5" cy="5.5" r="5.5" fill="#7f68c2" stroke="#6853a5" stroke-miterlimit="10" stroke-width="1"/>
    </clipPath>
    <clipPath id="clip-path-4">
      <path id="Clip_45" data-name="Clip 45" d="M0,0H12.431V9.712H0Z" transform="translate(0 4.204)" fill="none"/>
    </clipPath>
    <linearGradient id="linear-gradient" y1="0.5" x2="1" y2="0.5" gradientUnits="objectBoundingBox">
      <stop offset="0" stop-color="gray" stop-opacity="0.78"/>
      <stop offset="0.54" stop-color="gray" stop-opacity="0.122"/>
      <stop offset="1" stop-color="gray" stop-opacity="0.102"/>
    </linearGradient>
    <clipPath id="clip-path-11">
      <circle id="Mask-7" data-name="Mask" cx="10.283" cy="10.283" r="10.283" transform="translate(0 0)" fill="#8871cb" stroke="#4c3d79" stroke-miterlimit="10" stroke-width="1.87"/>
    </clipPath>
    <clipPath id="clip-path-12">
      <path id="Clip_45-5" data-name="Clip 45" d="M0,0H23.243V18.159H0Z" transform="translate(0 8.852)" fill="none"/>
    </clipPath>
  </defs>
  <g id="progressListIteam_4" transform="translate(-1.39 -1.316)">
    <g id="Group_17" data-name="Group 17">
      <g id="Group_13" data-name="Group 13" transform="translate(4 4)">
        <g id="Group_7" data-name="Group 7">
          <g id="Rectangle">
            <g id="Rectangle-2" data-name="Rectangle" transform="translate(0.055)">
              <g id="Group_15" data-name="Group 15">
                <rect id="Mask-8" data-name="Mask" width="140" height="140" rx="70" transform="translate(0.945)" fill="#5ed4ff"/>
                <g id="Group_15-2" data-name="Group 15" clip-path="url(#clip-path)">
                  <g id="Group_18" data-name="Group 18" transform="translate(-73 45.735)" opacity="0.95">
                    <path id="Rectangle-3" data-name="Rectangle" d="M0,63.866q0-.087.006-.173L4.15,5.964C2.091,8.832,10.859,2.183,59.709.057s42.781,55.9,66.162,50.06c12.829-3.2,33.934-41.738,58.89-41.417,33.918.435,36.539,23.541,45.261,23.691,39.582.681,27.284,34.292,43.692,39.225l8.572-5.468A2.415,2.415,0,0,1,286,68.185V125a2.415,2.415,0,0,1-2.415,2.415H2.415A2.415,2.415,0,0,1,0,125Z" transform="translate(0.945 0.854)" opacity="0.332"/>
                  </g>
                </g>
              </g>
            </g>
          </g>
        </g>
      </g>
      <g id="undraw_organize_photos_d5nr" transform="matrix(1, 0.017, -0.017, 1, 3.26, 0.606)">
        <path id="Mask-9" data-name="Mask" d="M67.5,131.653c37.279,0,65.764-15.542,67.5-66.751S123.848,2.293,86.569,2.293c-15.217,0-54.618-4.724-66.24-.61C3.479,7.648,0,43.085,0,64.9,0,101.768,30.221,131.653,67.5,131.653Z" transform="translate(0.56 7.774) rotate(-3)" fill="none"/>
        <g id="undraw_organize_photos_d5nr-2" data-name="undraw_organize_photos_d5nr" clip-path="url(#clip-path-2)">
          <g id="undraw_organize_photos_d5nr-3" data-name="undraw_organize_photos_d5nr" transform="matrix(1, -0.017, 0.017, 1, 36.3, 21.605)">
            <rect id="Rectangle-4" data-name="Rectangle" width="71.495" height="142.991" rx="12.654" transform="translate(72.279 143.324) rotate(180)" fill="#4a3c72"/>
            <rect id="Rectangle-5" data-name="Rectangle" width="60.965" height="116.387" transform="translate(67.014 130.023) rotate(180)" fill="#302256"/>
            <g id="Group_40" data-name="Group 40" transform="translate(8.562 16.638)">
              <g id="Group_21" data-name="Group 21">
                <rect id="Rectangle-6" data-name="Rectangle" width="55" height="18" transform="translate(0)" fill="#eaeaea" stroke="#fff" stroke-miterlimit="10" stroke-width="1"/>
                <g id="Group_14" data-name="Group 14" transform="translate(3.138 3.58)">
                  <g id="Group_11" data-name="Group 11">
                    <g id="Mask-10" data-name="Mask" fill="#7f68c2" stroke="#6853a5" stroke-miterlimit="10" stroke-width="1">
                      <circle cx="5.5" cy="5.5" r="5.5" stroke="none"/>
                      <circle cx="5.5" cy="5.5" r="6" fill="none"/>
                    </g>
                    <g id="Group_11-2" data-name="Group 11" clip-path="url(#clip-path-3)">
                      <g id="Group_12" data-name="Group 12" transform="translate(-1 1)">
                        <circle id="Oval" cx="1.925" cy="1.925" r="1.925" transform="translate(4.371 0)" fill="#ffc55e"/>
                        <path id="Fill_43" data-name="Fill 43" d="M2.138,4.451h-.01A2.308,2.308,0,0,1,0,2.127,2.089,2.089,0,0,1,.623.64,2.153,2.153,0,0,1,2.157,0h.036A2.154,2.154,0,0,1,4.266,2.2,2.305,2.305,0,0,1,2.138,4.451ZM1.607,1.112h0l-.038.054-.014.019a2.824,2.824,0,0,1-.844.867c-.174.108-.187.226-.15.42A1.714,1.714,0,0,0,2.043,3.891c.033,0,.067,0,.1,0A1.67,1.67,0,0,0,3.657,2.669a1.543,1.543,0,0,0,.072-.491c-.092.005-.171.008-.24.008A2.391,2.391,0,0,1,2.514,2a2.322,2.322,0,0,1-.906-.887Z" transform="translate(4.219)" fill="#6853a5"/>
                        <path id="Clip_45-6" data-name="Clip 45" d="M0,0H12.431V9.712H0Z" transform="translate(0 4.204)" fill="none"/>
                        <g id="Group_12-2" data-name="Group 12" clip-path="url(#clip-path-4)">
                          <path id="Fill_44" data-name="Fill 44" d="M1.24,3.269H7.715c0-.015.005-.037.009-.065a3.021,3.021,0,0,0-.306-.4,1,1,0,0,1-.219.025.84.84,0,0,1-.6-.241L4.948.933l-.5,1.506L4.158.648,4.313.389,4.287.13H3.452L3.426.389l.155.259L3.3,2.439,2.479,0A2.926,2.926,0,0,0,.024,3.27H1.24" transform="translate(2.354 4.639)" fill="#c8b6ff"/>
                          <path id="Combined_Shape" data-name="Combined Shape" d="M.946,3.14H.212a3.539,3.539,0,0,0,.117-.908A3.536,3.536,0,0,0,.164,1.154l.1-.635L.109.259.135,0H.97L1,.259.842.518l.12.75A3.593,3.593,0,0,0,.946,3.138Z" transform="translate(5.67 4.769)" fill="#ffc55e"/>
                          <path id="Fill_46" data-name="Fill 46" d="M9.72,9.715H3.557l-1.129,0c-.093-.47-.193-.977-.318-1.6q-.037-.186-.075-.372l0-.017c-.063-.308-.127-.624-.184-.936-.02-.114-.072-.136-.162-.136l-.36,0-.492,0A.753.753,0,0,1,0,5.84C0,5.545,0,5.227.007,4.909a.76.76,0,0,1,.8-.768c1.112,0,2.214,0,3.239,0h1.62l5,0h.11a3.232,3.232,0,0,0-.9-1.413.637.637,0,0,1-.329.1.4.4,0,0,1-.293-.113L7.513.974a.553.553,0,0,1,.1-.762A.679.679,0,0,1,8.08,0a.4.4,0,0,1,.293.114l1.739,1.74a.478.478,0,0,1,.054.546A3.578,3.578,0,0,1,11.223,4.14h.366a.759.759,0,0,1,.827.735A7.946,7.946,0,0,1,12.4,6.007a.689.689,0,0,1-.693.637c-.2.006-.42.009-.669.009-.189,0-.379,0-.568,0-.115,0-.154.033-.176.146-.138.712-.282,1.435-.422,2.135v.007l-.008.041-.147.735ZM8.408,8.057h0l.6.315L8.892,7.7l.485-.473-.671-.1-.3-.607-.3.608-.671.1.485.473-.114.667.6-.315Zm-2.192,0h0l.6.315L6.7,7.7l.485-.473-.671-.1-.3-.607-.3.608-.67.1.485.473-.115.667.6-.315Zm-2.192,0h0l.6.315L4.508,7.7l.485-.473-.67-.1-.3-.607-.3.608-.67.1.484.473-.114.667.6-.315Z" transform="translate(0 4.204)" fill="#c8b6ff"/>
                        </g>
                      </g>
                    </g>
                  </g>
                  <circle id="Oval-2" data-name="Oval" cx="1.5" cy="1.5" r="1.5" transform="translate(9 8)" fill="#e07171"/>
                  <path id="Line" d="M.5.5h29" transform="translate(17 3)" fill="none" stroke="#979797" stroke-linecap="square" stroke-miterlimit="10" stroke-width="1"/>
                  <path id="Line-2" data-name="Line" d="M.5.5h29" transform="translate(17 6)" fill="none" stroke="#979797" stroke-linecap="square" stroke-miterlimit="10" stroke-width="1"/>
                  <path id="Line-3" data-name="Line" d="M.5.5h14" transform="translate(17 9)" fill="none" stroke="#979797" stroke-linecap="square" stroke-miterlimit="10" stroke-width="1"/>
                </g>
              </g>
              <g id="Group_21-2" data-name="Group 21" transform="translate(0 20)">
                <rect id="Rectangle-7" data-name="Rectangle" width="55" height="18" transform="translate(0)" fill="#eaeaea" stroke="#fff" stroke-miterlimit="10" stroke-width="1"/>
                <g id="Group_14-2" data-name="Group 14" transform="translate(3.138 3.58)">
                  <g id="Group_11-3" data-name="Group 11">
                    <g id="Mask-11" data-name="Mask" fill="#7f68c2" stroke="#6853a5" stroke-miterlimit="10" stroke-width="1">
                      <circle cx="5.5" cy="5.5" r="5.5" stroke="none"/>
                      <circle cx="5.5" cy="5.5" r="6" fill="none"/>
                    </g>
                    <g id="Group_11-4" data-name="Group 11" clip-path="url(#clip-path-3)">
                      <g id="Group_12-3" data-name="Group 12" transform="translate(-1 1)">
                        <circle id="Oval-3" data-name="Oval" cx="1.925" cy="1.925" r="1.925" transform="translate(4.371 0)" fill="#ffc55e"/>
                        <path id="Fill_43-2" data-name="Fill 43" d="M2.138,4.451h-.01A2.308,2.308,0,0,1,0,2.127,2.089,2.089,0,0,1,.623.64,2.153,2.153,0,0,1,2.157,0h.036A2.154,2.154,0,0,1,4.266,2.2,2.305,2.305,0,0,1,2.138,4.451ZM1.607,1.112h0l-.038.054-.014.019a2.824,2.824,0,0,1-.844.867c-.174.108-.187.226-.15.42A1.714,1.714,0,0,0,2.043,3.891c.033,0,.067,0,.1,0A1.67,1.67,0,0,0,3.657,2.669a1.543,1.543,0,0,0,.072-.491c-.092.005-.171.008-.24.008A2.391,2.391,0,0,1,2.514,2a2.322,2.322,0,0,1-.906-.887Z" transform="translate(4.219)" fill="#6853a5"/>
                        <path id="Clip_45-7" data-name="Clip 45" d="M0,0H12.431V9.712H0Z" transform="translate(0 4.204)" fill="none"/>
                        <g id="Group_12-4" data-name="Group 12" clip-path="url(#clip-path-4)">
                          <path id="Fill_44-2" data-name="Fill 44" d="M1.24,3.269H7.715c0-.015.005-.037.009-.065a3.021,3.021,0,0,0-.306-.4,1,1,0,0,1-.219.025.84.84,0,0,1-.6-.241L4.948.933l-.5,1.506L4.158.648,4.313.389,4.287.13H3.452L3.426.389l.155.259L3.3,2.439,2.479,0A2.926,2.926,0,0,0,.024,3.27H1.24" transform="translate(2.354 4.639)" fill="#c8b6ff"/>
                          <path id="Combined_Shape-2" data-name="Combined Shape" d="M.946,3.14H.212a3.539,3.539,0,0,0,.117-.908A3.536,3.536,0,0,0,.164,1.154l.1-.635L.109.259.135,0H.97L1,.259.842.518l.12.75A3.593,3.593,0,0,0,.946,3.138Z" transform="translate(5.67 4.769)" fill="#ffc55e"/>
                          <path id="Fill_46-2" data-name="Fill 46" d="M9.72,9.715H3.557l-1.129,0c-.093-.47-.193-.977-.318-1.6q-.037-.186-.075-.372l0-.017c-.063-.308-.127-.624-.184-.936-.02-.114-.072-.136-.162-.136l-.36,0-.492,0A.753.753,0,0,1,0,5.84C0,5.545,0,5.227.007,4.909a.76.76,0,0,1,.8-.768c1.112,0,2.214,0,3.239,0h1.62l5,0h.11a3.232,3.232,0,0,0-.9-1.413.637.637,0,0,1-.329.1.4.4,0,0,1-.293-.113L7.513.974a.553.553,0,0,1,.1-.762A.679.679,0,0,1,8.08,0a.4.4,0,0,1,.293.114l1.739,1.74a.478.478,0,0,1,.054.546A3.578,3.578,0,0,1,11.223,4.14h.366a.759.759,0,0,1,.827.735A7.946,7.946,0,0,1,12.4,6.007a.689.689,0,0,1-.693.637c-.2.006-.42.009-.669.009-.189,0-.379,0-.568,0-.115,0-.154.033-.176.146-.138.712-.282,1.435-.422,2.135v.007l-.008.041-.147.735ZM8.408,8.057h0l.6.315L8.892,7.7l.485-.473-.671-.1-.3-.607-.3.608-.671.1.485.473-.114.667.6-.315Zm-2.192,0h0l.6.315L6.7,7.7l.485-.473-.671-.1-.3-.607-.3.608-.67.1.485.473-.115.667.6-.315Zm-2.192,0h0l.6.315L4.508,7.7l.485-.473-.67-.1-.3-.607-.3.608-.67.1.484.473-.114.667.6-.315Z" transform="translate(0 4.204)" fill="#c8b6ff"/>
                        </g>
                      </g>
                    </g>
                  </g>
                  <circle id="Oval-4" data-name="Oval" cx="1.5" cy="1.5" r="1.5" transform="translate(9 8)" fill="#3bcaf4"/>
                  <path id="Line-4" data-name="Line" d="M.5.5h29" transform="translate(17 3)" fill="none" stroke="#979797" stroke-linecap="square" stroke-miterlimit="10" stroke-width="1"/>
                  <path id="Line-5" data-name="Line" d="M.5.5h29" transform="translate(17 6)" fill="none" stroke="#979797" stroke-linecap="square" stroke-miterlimit="10" stroke-width="1"/>
                  <path id="Line-6" data-name="Line" d="M.5.5h14" transform="translate(17 9)" fill="none" stroke="#979797" stroke-linecap="square" stroke-miterlimit="10" stroke-width="1"/>
                </g>
              </g>
              <g id="Group_21-3" data-name="Group 21" transform="translate(0 40)">
                <rect id="Rectangle-8" data-name="Rectangle" width="55" height="18" transform="translate(0)" fill="#eaeaea" stroke="#fff" stroke-miterlimit="10" stroke-width="1"/>
                <g id="Group_14-3" data-name="Group 14" transform="translate(3.138 3.58)">
                  <g id="Group_11-5" data-name="Group 11">
                    <g id="Mask-12" data-name="Mask" fill="#7f68c2" stroke="#6853a5" stroke-miterlimit="10" stroke-width="1">
                      <circle cx="5.5" cy="5.5" r="5.5" stroke="none"/>
                      <circle cx="5.5" cy="5.5" r="6" fill="none"/>
                    </g>
                    <g id="Group_11-6" data-name="Group 11" clip-path="url(#clip-path-3)">
                      <g id="Group_12-5" data-name="Group 12" transform="translate(-1 1)">
                        <circle id="Oval-5" data-name="Oval" cx="1.925" cy="1.925" r="1.925" transform="translate(4.371 0)" fill="#ffc55e"/>
                        <path id="Fill_43-3" data-name="Fill 43" d="M2.138,4.451h-.01A2.308,2.308,0,0,1,0,2.127,2.089,2.089,0,0,1,.623.64,2.153,2.153,0,0,1,2.157,0h.036A2.154,2.154,0,0,1,4.266,2.2,2.305,2.305,0,0,1,2.138,4.451ZM1.607,1.112h0l-.038.054-.014.019a2.824,2.824,0,0,1-.844.867c-.174.108-.187.226-.15.42A1.714,1.714,0,0,0,2.043,3.891c.033,0,.067,0,.1,0A1.67,1.67,0,0,0,3.657,2.669a1.543,1.543,0,0,0,.072-.491c-.092.005-.171.008-.24.008A2.391,2.391,0,0,1,2.514,2a2.322,2.322,0,0,1-.906-.887Z" transform="translate(4.219)" fill="#6853a5"/>
                        <path id="Clip_45-8" data-name="Clip 45" d="M0,0H12.431V9.712H0Z" transform="translate(0 4.204)" fill="none"/>
                        <g id="Group_12-6" data-name="Group 12" clip-path="url(#clip-path-4)">
                          <path id="Fill_44-3" data-name="Fill 44" d="M1.24,3.269H7.715c0-.015.005-.037.009-.065a3.021,3.021,0,0,0-.306-.4,1,1,0,0,1-.219.025.84.84,0,0,1-.6-.241L4.948.933l-.5,1.506L4.158.648,4.313.389,4.287.13H3.452L3.426.389l.155.259L3.3,2.439,2.479,0A2.926,2.926,0,0,0,.024,3.27H1.24" transform="translate(2.354 4.639)" fill="#c8b6ff"/>
                          <path id="Combined_Shape-3" data-name="Combined Shape" d="M.946,3.14H.212a3.539,3.539,0,0,0,.117-.908A3.536,3.536,0,0,0,.164,1.154l.1-.635L.109.259.135,0H.97L1,.259.842.518l.12.75A3.593,3.593,0,0,0,.946,3.138Z" transform="translate(5.67 4.769)" fill="#ffc55e"/>
                          <path id="Fill_46-3" data-name="Fill 46" d="M9.72,9.715H3.557l-1.129,0c-.093-.47-.193-.977-.318-1.6q-.037-.186-.075-.372l0-.017c-.063-.308-.127-.624-.184-.936-.02-.114-.072-.136-.162-.136l-.36,0-.492,0A.753.753,0,0,1,0,5.84C0,5.545,0,5.227.007,4.909a.76.76,0,0,1,.8-.768c1.112,0,2.214,0,3.239,0h1.62l5,0h.11a3.232,3.232,0,0,0-.9-1.413.637.637,0,0,1-.329.1.4.4,0,0,1-.293-.113L7.513.974a.553.553,0,0,1,.1-.762A.679.679,0,0,1,8.08,0a.4.4,0,0,1,.293.114l1.739,1.74a.478.478,0,0,1,.054.546A3.578,3.578,0,0,1,11.223,4.14h.366a.759.759,0,0,1,.827.735A7.946,7.946,0,0,1,12.4,6.007a.689.689,0,0,1-.693.637c-.2.006-.42.009-.669.009-.189,0-.379,0-.568,0-.115,0-.154.033-.176.146-.138.712-.282,1.435-.422,2.135v.007l-.008.041-.147.735ZM8.408,8.057h0l.6.315L8.892,7.7l.485-.473-.671-.1-.3-.607-.3.608-.671.1.485.473-.114.667.6-.315Zm-2.192,0h0l.6.315L6.7,7.7l.485-.473-.671-.1-.3-.607-.3.608-.67.1.485.473-.115.667.6-.315Zm-2.192,0h0l.6.315L4.508,7.7l.485-.473-.67-.1-.3-.607-.3.608-.67.1.484.473-.114.667.6-.315Z" transform="translate(0 4.204)" fill="#c8b6ff"/>
                        </g>
                      </g>
                    </g>
                  </g>
                  <circle id="Oval-6" data-name="Oval" cx="1.5" cy="1.5" r="1.5" transform="translate(9 8)" fill="#3bcaf4"/>
                  <path id="Line-7" data-name="Line" d="M.5.5h29" transform="translate(17 3)" fill="none" stroke="#979797" stroke-linecap="square" stroke-miterlimit="10" stroke-width="1"/>
                  <path id="Line-8" data-name="Line" d="M.5.5h29" transform="translate(17 6)" fill="none" stroke="#979797" stroke-linecap="square" stroke-miterlimit="10" stroke-width="1"/>
                  <path id="Line-9" data-name="Line" d="M.5.5h14" transform="translate(17 9)" fill="none" stroke="#979797" stroke-linecap="square" stroke-miterlimit="10" stroke-width="1"/>
                </g>
              </g>
              <g id="Group_21-4" data-name="Group 21" transform="translate(0 60)">
                <rect id="Rectangle-9" data-name="Rectangle" width="55" height="18" transform="translate(0)" fill="#eaeaea" stroke="#fff" stroke-miterlimit="10" stroke-width="1"/>
                <g id="Group_14-4" data-name="Group 14" transform="translate(3.138 3.58)">
                  <g id="Group_11-7" data-name="Group 11">
                    <g id="Mask-13" data-name="Mask" fill="#7f68c2" stroke="#6853a5" stroke-miterlimit="10" stroke-width="1">
                      <circle cx="5.5" cy="5.5" r="5.5" stroke="none"/>
                      <circle cx="5.5" cy="5.5" r="6" fill="none"/>
                    </g>
                    <g id="Group_11-8" data-name="Group 11" clip-path="url(#clip-path-3)">
                      <g id="Group_12-7" data-name="Group 12" transform="translate(-1 1)">
                        <circle id="Oval-7" data-name="Oval" cx="1.925" cy="1.925" r="1.925" transform="translate(4.371 0)" fill="#ffc55e"/>
                        <path id="Fill_43-4" data-name="Fill 43" d="M2.138,4.451h-.01A2.308,2.308,0,0,1,0,2.127,2.089,2.089,0,0,1,.623.64,2.153,2.153,0,0,1,2.157,0h.036A2.154,2.154,0,0,1,4.266,2.2,2.305,2.305,0,0,1,2.138,4.451ZM1.607,1.112h0l-.038.054-.014.019a2.824,2.824,0,0,1-.844.867c-.174.108-.187.226-.15.42A1.714,1.714,0,0,0,2.043,3.891c.033,0,.067,0,.1,0A1.67,1.67,0,0,0,3.657,2.669a1.543,1.543,0,0,0,.072-.491c-.092.005-.171.008-.24.008A2.391,2.391,0,0,1,2.514,2a2.322,2.322,0,0,1-.906-.887Z" transform="translate(4.219)" fill="#6853a5"/>
                        <path id="Clip_45-9" data-name="Clip 45" d="M0,0H12.431V9.712H0Z" transform="translate(0 4.204)" fill="none"/>
                        <g id="Group_12-8" data-name="Group 12" clip-path="url(#clip-path-4)">
                          <path id="Fill_44-4" data-name="Fill 44" d="M1.24,3.269H7.715c0-.015.005-.037.009-.065a3.021,3.021,0,0,0-.306-.4,1,1,0,0,1-.219.025.84.84,0,0,1-.6-.241L4.948.933l-.5,1.506L4.158.648,4.313.389,4.287.13H3.452L3.426.389l.155.259L3.3,2.439,2.479,0A2.926,2.926,0,0,0,.024,3.27H1.24" transform="translate(2.354 4.639)" fill="#c8b6ff"/>
                          <path id="Combined_Shape-4" data-name="Combined Shape" d="M.946,3.14H.212a3.539,3.539,0,0,0,.117-.908A3.536,3.536,0,0,0,.164,1.154l.1-.635L.109.259.135,0H.97L1,.259.842.518l.12.75A3.593,3.593,0,0,0,.946,3.138Z" transform="translate(5.67 4.769)" fill="#ffc55e"/>
                          <path id="Fill_46-4" data-name="Fill 46" d="M9.72,9.715H3.557l-1.129,0c-.093-.47-.193-.977-.318-1.6q-.037-.186-.075-.372l0-.017c-.063-.308-.127-.624-.184-.936-.02-.114-.072-.136-.162-.136l-.36,0-.492,0A.753.753,0,0,1,0,5.84C0,5.545,0,5.227.007,4.909a.76.76,0,0,1,.8-.768c1.112,0,2.214,0,3.239,0h1.62l5,0h.11a3.232,3.232,0,0,0-.9-1.413.637.637,0,0,1-.329.1.4.4,0,0,1-.293-.113L7.513.974a.553.553,0,0,1,.1-.762A.679.679,0,0,1,8.08,0a.4.4,0,0,1,.293.114l1.739,1.74a.478.478,0,0,1,.054.546A3.578,3.578,0,0,1,11.223,4.14h.366a.759.759,0,0,1,.827.735A7.946,7.946,0,0,1,12.4,6.007a.689.689,0,0,1-.693.637c-.2.006-.42.009-.669.009-.189,0-.379,0-.568,0-.115,0-.154.033-.176.146-.138.712-.282,1.435-.422,2.135v.007l-.008.041-.147.735ZM8.408,8.057h0l.6.315L8.892,7.7l.485-.473-.671-.1-.3-.607-.3.608-.671.1.485.473-.114.667.6-.315Zm-2.192,0h0l.6.315L6.7,7.7l.485-.473-.671-.1-.3-.607-.3.608-.67.1.485.473-.115.667.6-.315Zm-2.192,0h0l.6.315L4.508,7.7l.485-.473-.67-.1-.3-.607-.3.608-.67.1.484.473-.114.667.6-.315Z" transform="translate(0 4.204)" fill="#c8b6ff"/>
                        </g>
                      </g>
                    </g>
                  </g>
                  <circle id="Oval-8" data-name="Oval" cx="1.5" cy="1.5" r="1.5" transform="translate(9 8)" fill="#a42fff"/>
                  <path id="Line-10" data-name="Line" d="M.5.5h29" transform="translate(17 3)" fill="none" stroke="#979797" stroke-linecap="square" stroke-miterlimit="10" stroke-width="1"/>
                  <path id="Line-11" data-name="Line" d="M.5.5h29" transform="translate(17 6)" fill="none" stroke="#979797" stroke-linecap="square" stroke-miterlimit="10" stroke-width="1"/>
                  <path id="Line-12" data-name="Line" d="M.5.5h14" transform="translate(17 9)" fill="none" stroke="#979797" stroke-linecap="square" stroke-miterlimit="10" stroke-width="1"/>
                </g>
              </g>
              <g id="Group_21-5" data-name="Group 21" transform="translate(0 80)">
                <rect id="Rectangle-10" data-name="Rectangle" width="55" height="18" transform="translate(0)" fill="#eaeaea" stroke="#fff" stroke-miterlimit="10" stroke-width="1"/>
                <g id="Group_14-5" data-name="Group 14" transform="translate(20.138 6.58)">
                  <path id="Line-13" data-name="Line" d="M.5.5h29" fill="none" stroke="#979797" stroke-linecap="square" stroke-miterlimit="10" stroke-width="1"/>
                  <path id="Line-14" data-name="Line" d="M.5.5h29" transform="translate(0 3)" fill="none" stroke="#979797" stroke-linecap="square" stroke-miterlimit="10" stroke-width="1"/>
                  <path id="Line-15" data-name="Line" d="M.5.5h14" transform="translate(0 6)" fill="none" stroke="#979797" stroke-linecap="square" stroke-miterlimit="10" stroke-width="1"/>
                </g>
              </g>
            </g>
            <circle id="Oval-9" data-name="Oval" cx="0.554" cy="0.554" r="0.554" transform="translate(43.183 6.431)" fill="#fff"/>
            <rect id="Rectangle-11" data-name="Rectangle" width="12.193" height="1.109" rx="0.471" transform="translate(40.966 7.539) rotate(180)" fill="#fff"/>
            <g id="Group" transform="translate(34.821 52.102)" opacity="0.1">
              <path id="Path" d="M.343.931.352.912.178.817.267.7.116.625.207.492.093.416.174.306.031.227.147.079.01,0,0,.019.116.087,0,.234.143.312.064.422.178.5.085.635.236.707.147.823l.2.108Z" transform="translate(0.108 0.201)"/>
              <path id="Path-2" data-name="Path" d="M.207.941.318.852.176.716.236.625.112.525.182.393.093.335.157.225.031.126l.1-.112L.116,0,0,.13l.13.1L.064.341.155.4.087.53l.12.1L.149.718.285.85.194.925.207.941Z" transform="translate(0.108 0.178)"/>
            </g>
          </g>
        </g>
      </g>
    </g>
    <g id="Group_16" data-name="Group 16" transform="translate(22 57)">
      <g id="Group_10" data-name="Group 10">
        <g id="Group_14-6" data-name="Group 14">
          <g id="Group_11-9" data-name="Group 11" transform="matrix(0.995, -0.105, 0.105, 0.995, 0.509, 13.472)">
            <g id="Group_19" data-name="Group 19" transform="matrix(1, -0.017, 0.017, 1, 0.607, 2.058)">
              <path id="Rectangle-12" data-name="Rectangle" d="M3.335,0,29.624-.115V-96.393H0Z" transform="translate(97.708 50.022) rotate(-82)" fill="url(#linear-gradient)"/>
              <g id="Group_12-9" data-name="Group 12" transform="translate(4.614 0.098) rotate(7)">
                <path id="Rectangle-13" data-name="Rectangle" d="M.12,1.663,94.162,0V30.682L0,31.236Z" transform="translate(94.162 31.466) rotate(180)" fill="#fff"/>
                <rect id="Rectangle-14" data-name="Rectangle" width="85.698" height="23.276" transform="translate(89.347 27.562) rotate(180)" fill="#e8e8e8"/>
                <g id="Group_9" data-name="Group 9" transform="translate(30.201 9.738)">
                  <path id="Line-16" data-name="Line" d="M0,.529H51.518" transform="translate(0.158 0)" fill="none" stroke="#6f6f6f" stroke-linecap="round" stroke-linejoin="round" stroke-miterlimit="10" stroke-width="1.481"/>
                  <path id="Line-17" data-name="Line" d="M0,.529H51.518" transform="translate(0.079 5.923)" fill="none" stroke="#6f6f6f" stroke-linecap="round" stroke-linejoin="round" stroke-miterlimit="10" stroke-width="1.481"/>
                  <path id="Line-18" data-name="Line" d="M0,.529H27.217" transform="translate(0 11.846)" fill="none" stroke="#6f6f6f" stroke-linecap="round" stroke-linejoin="round" stroke-miterlimit="10" stroke-width="1.481"/>
                </g>
              </g>
              <g id="Group_11-10" data-name="Group 11" transform="translate(10.734 6.125) rotate(11)">
                <circle id="Mask-14" data-name="Mask" cx="10.283" cy="10.283" r="10.283" transform="translate(0 0)" fill="#8871cb" stroke="#4c3d79" stroke-miterlimit="10" stroke-width="1.87"/>
                <g id="Group_11-11" data-name="Group 11" clip-path="url(#clip-path-11)">
                  <g id="Group_12-10" data-name="Group 12" transform="translate(-1.87 0.878)">
                    <circle id="Oval-10" data-name="Oval" cx="3.599" cy="3.599" r="3.599" transform="translate(8.173 0.992)" fill="#ffc55e"/>
                    <path id="Fill_43-5" data-name="Fill 43" d="M4.222,8.431H4.2A4.091,4.091,0,0,1,1.224,7.052,4.552,4.552,0,0,1,0,4.029,3.875,3.875,0,0,1,1.166,1.275,4.39,4.39,0,0,1,4.258,0h.073a4.158,4.158,0,0,1,4.1,4.157A4.548,4.548,0,0,1,7.166,7.089,4.049,4.049,0,0,1,4.222,8.431ZM3.264,2.1l-.048.066-.052.073A5.507,5.507,0,0,1,1.487,3.877c-.346.2-.373.429-.3.8A3.343,3.343,0,0,0,4.13,7.36c.065,0,.132.007.2.007A3.287,3.287,0,0,0,7.334,5.044a2.765,2.765,0,0,0,.142-.931c-.172.01-.332.014-.477.014a4.97,4.97,0,0,1-1.936-.349A4.521,4.521,0,0,1,3.264,2.1h0Z" transform="translate(7.738 0.361)" fill="#6853a5"/>
                    <path id="Clip_45-10" data-name="Clip 45" d="M0,0H23.243V18.159H0Z" transform="translate(0 8.852)" fill="none"/>
                    <g id="Group_12-11" data-name="Group 12" clip-path="url(#clip-path-12)">
                      <path id="Path-3" data-name="Path" d="M4.145,0l.815,2.721A11.2,11.2,0,0,0,4.9,6.112H.04l-.023-.22A5.461,5.461,0,0,1,3.9.078Z" transform="translate(6.151 10.45)" fill="#c8b6ff"/>
                      <path id="Path-4" data-name="Path" d="M-4.635,0l-.911,2.721a9.97,9.97,0,0,1,.181,1.9,10,10,0,0,1-.112,1.495H-.044l.025-.22C.067,4.9.043,1.391-4.36.078Z" transform="translate(20.251 10.694)" fill="#c8b6ff"/>
                      <path id="Path-5" data-name="Path" d="M1.86,0,2,.91l-.65.7.693,1.411C2.375,4.26,1.5,6.757,1.672,7.385c0,0-1.717-3.23-1.455-4.079l.5-1.795L0,.91.058.337A3.527,3.527,0,0,0,.945.316,4.683,4.683,0,0,0,1.86,0Z" transform="translate(11.668 9.254)" fill="#f7c05d"/>
                      <path id="Fill_46-5" data-name="Fill 46" d="M18.174,18.163H6.65v-.007H4.539q-.251-1.266-.506-2.546l0-.017-.084-.424q-.069-.345-.14-.69c-.119-.585-.243-1.191-.351-1.789-.038-.213-.134-.253-.3-.253H3.142q-.311,0-.623,0c-.352,0-.7,0-.96,0a1.407,1.407,0,0,1-1.55-1.516C0,10.4-.008,9.795.014,9.178A1.422,1.422,0,0,1,1.5,7.742c1.781,0,3.55,0,4.892,0h4.193l9.551,0A6.045,6.045,0,0,0,18.461,5.1a1.183,1.183,0,0,1-.615.185.756.756,0,0,1-.548-.212L14.047,1.82a.754.754,0,0,1-.213-.548A1.27,1.27,0,0,1,14.23.4,1.27,1.27,0,0,1,15.107,0a.754.754,0,0,1,.547.212l3.252,3.252a.9.9,0,0,1,.1,1.022A6.666,6.666,0,0,1,20.983,7.74h.686a1.42,1.42,0,0,1,1.546,1.375,14.866,14.866,0,0,1-.022,2.116,1.288,1.288,0,0,1-1.3,1.193c-.381.012-.781.017-1.262.017-.357,0-.714,0-1.05-.006h-.013c-.2,0-.278.066-.317.271-.271,1.4-.555,2.819-.829,4.192l-.253,1.265Zm-2.454-3.1h0l1.12.588-.215-1.247.907-.883-1.253-.183-.56-1.135-.561,1.135-1.252.183.906.883L14.6,15.653l1.12-.588Zm-4.1,0h0l1.119.588-.214-1.247.907-.883-1.253-.183-.56-1.135-.561,1.135-1.252.183.905.883L10.5,15.653l1.121-.588Zm-4.1,0h0l1.12.588-.214-1.247.906-.883L8.083,13.34,7.523,12.2l-.56,1.135-1.253.183.906.883L6.4,15.653l1.12-.588Z" transform="translate(0 8.852)" fill="#4c3d79"/>
                    </g>
                  </g>
                </g>
              </g>
              <circle id="Oval-11" data-name="Oval" cx="2.875" cy="2.875" r="2.875" transform="translate(23.575 22.872) rotate(9)" fill="#e07171"/>
            </g>
          </g>
          <g id="Group_8" data-name="Group 8" transform="translate(82.286 1.752) rotate(-3)">
            <circle id="Oval-12" data-name="Oval" cx="13.6" cy="13.6" r="13.6" transform="translate(0.726 0.682)" fill="#4c3e73" stroke="#fff" stroke-miterlimit="10" stroke-width="3.2"/>
            <path id="Shape" d="M3.689,9.689a1.453,1.453,0,0,0,1.075.467,1.516,1.516,0,0,0,1.075-.467l6.525-6.946a1.679,1.679,0,0,0,0-2.272,1.444,1.444,0,0,0-2.135,0l-5.48,5.8-2.171-2a1.444,1.444,0,0,0-2.135,0,1.679,1.679,0,0,0,0,2.272Z" transform="translate(7.926 9.482)" fill="#fff"/>
          </g>
        </g>
      </g>
    </g>
  </g>
</svg>
