<svg xmlns="http://www.w3.org/2000/svg" xmlns:xlink="http://www.w3.org/1999/xlink" width="45" height="53" viewBox="0 0 45 53">
  <defs>
    <clipPath id="clip-Canvas">
      <rect width="45" height="53"/>
    </clipPath>
  </defs>
  <g id="Canvas" clip-path="url(#clip-Canvas)">
    <rect width="45" height="53" fill="rgba(0,0,0,0)"/>
    <g id="voter">
      <line id="Layer" y2="39.35" transform="translate(41.55 1.65)" fill="none" stroke="#625e58" stroke-linecap="round" stroke-linejoin="round" stroke-width="1.439"/>
      <line id="Layer-2" data-name="Layer" y2="39.35" transform="translate(2.84 1.65)" fill="none" stroke="#282333" stroke-linecap="round" stroke-linejoin="round" stroke-width="1.439"/>
      <line id="Layer-3" data-name="Layer" y2="39.36" transform="translate(32.89 10.71)" fill="none" stroke="#625e58" stroke-linecap="round" stroke-linejoin="round" stroke-width="1.439"/>
      <line id="Layer-4" data-name="Layer" y2="39.36" transform="translate(10.35 10.71)" fill="none" stroke="#625e58" stroke-linecap="round" stroke-linejoin="round" stroke-width="1.439"/>
      <path id="Layer-5" data-name="Layer" d="M43.72,3.591c-4.631,1.569-7.4,2.374-8.311,2.329a3.734,3.734,0,0,1-.76-.152h0l.164,31.766,8.907-2.8Z" fill="#fffaf0" stroke="#282333" stroke-linejoin="round" stroke-width="1.439"/>
      <path id="Layer-6" data-name="Layer" d="M1.26,3.49c3.58,1.555,5.714,2.39,6.4,2.335a2.629,2.629,0,0,0,.763-.25h0l.5,31.362-7.1-2.782Z" fill="#fffaf0" stroke="#625e58" stroke-linejoin="round" stroke-width="1.439"/>
      <path id="Layer-7" data-name="Layer" d="M7.15,1H37.783l.1,38.79a2.892,2.892,0,0,1-.181,1.012q-.95,2.547-1.9,2.547c-1.04,0-2.728-1.809-3.593-1.645s-2.512,1.645-2.785,1.645c-1.13,0-.652-1.709-2.785-1.645-1.08.032-1.91,1.645-2.785,1.645S22.115,41.7,21.075,41.7c-1.7,0-1.8,1.645-2.785,1.645-1.832,0-2.051-1.645-2.785-1.645-1.31,0-1.382,1.645-2.785,1.645-.58,0-1.354-1.645-2.394-1.645h-.048A1.581,1.581,0,0,1,7.2,41.209L7.15,1Z" fill="#fffaf0" stroke="#625e58" stroke-linecap="round" stroke-linejoin="round" stroke-width="1.439"/>
      <line id="Layer-8" data-name="Layer" x1="0.12" y2="27.15" transform="translate(40.59 8.41)" fill="none" stroke="#625e58" stroke-linecap="round" stroke-linejoin="round" stroke-width="1.026"/>
      <line id="Layer-9" data-name="Layer" x2="0.29" y2="27.15" transform="translate(4.19 8.41)" fill="none" stroke="#625e58" stroke-linecap="round" stroke-linejoin="round" stroke-width="1.026"/>
      <line id="Layer-10" data-name="Layer" y2="25.73" transform="translate(24.75 9.27)" fill="none" stroke="#625e58" stroke-linecap="round" stroke-linejoin="round" stroke-width="1.012"/>
      <line id="Layer-11" data-name="Layer" y2="25.73" transform="translate(30.23 9.27)" fill="none" stroke="#625e58" stroke-linecap="round" stroke-linejoin="round" stroke-width="1.012"/>
      <line id="Layer-12" data-name="Layer" y2="25.73" transform="translate(14.49 9.27)" fill="none" stroke="#625e58" stroke-linecap="round" stroke-linejoin="round" stroke-width="1.012"/>
      <line id="Layer-13" data-name="Layer" y2="25.73" transform="translate(19.96 9.27)" fill="none" stroke="#625e58" stroke-linecap="round" stroke-linejoin="round" stroke-width="1.012"/>
      <image id="Rectangle_1" data-name="Rectangle 1" width="37" height="5" transform="translate(3 48)" xlink:href="data:image/png;base64,iVBORw0KGgoAAAANSUhEUgAAACUAAAAFCAYAAADCMiU1AAAABHNCSVQICAgIfAhkiAAAAFFJREFUKFNjZIAAJiBmhtJQIbpT/4A2/gXif4xQh/ACaWkg5oc6jt4uAjnoExA/AdEgR4FCCOQgCyCWB2JWersIaN8fqIOOAenHgzakBl2aAgD+rBIN3aiEIAAAAABJRU5ErkJggg=="/>
    </g>
  </g>
</svg>
